<?xml version="1.0" encoding="UTF-8"?>
<!DOCTYPE svg PUBLIC "-//W3C//DTD SVG 1.1//EN" "http://www.w3.org/Graphics/SVG/1.1/DTD/svg11.dtd">
<!-- Creator: CorelDRAW X7 -->
<svg xmlns="http://www.w3.org/2000/svg" xml:space="preserve" width="8.5in" height="11in" version="1.1" style="shape-rendering:geometricPrecision; text-rendering:geometricPrecision; image-rendering:optimizeQuality; fill-rule:evenodd; clip-rule:evenodd"
viewBox="0 0 8500 11000"
 xmlns:xlink="http://www.w3.org/1999/xlink">
 <defs>
  <style type="text/css">
   <![CDATA[
    .fil1 {fill:#393D3D}
    .fil7 {fill:#656768}
    .fil5 {fill:#8C77A3}
    .fil6 {fill:#9EBAC6}
    .fil3 {fill:#BABABA}
    .fil0 {fill:#E0DED7}
    .fil4 {fill:#E6E6E7}
    .fil2 {fill:#F2F2F2}
   ]]>
  </style>
   <clipPath id="id0">
    <path d="M7200 8940l0 0 172 -1c98,0 143,0 250,-8 46,-9 45,-30 45,-49 0,-12 0,-24 0,-37 -1,-267 -1,-534 -2,-801 -1,-424 -2,-848 -3,-1271 0,0 0,0 0,0 1,423 2,847 3,1271 1,267 1,534 2,801 0,13 0,25 0,37 0,19 1,40 -45,49 -107,8 -152,8 -250,8l-172 1z"/>
   </clipPath>
   <clipPath id="id1">
    <path d="M7210 8940l0 0 -467 1c-1591,4 -3267,8 -4858,12 -195,0 -338,2 -502,2 -42,0 -84,0 -129,-1 -37,0 -37,0 -86,-9 -2,-1 -5,-2 -7,-3 2,1 5,2 7,3 49,9 49,9 86,9 45,1 87,1 129,1l0 0c164,0 307,-2 502,-2 1591,-4 3267,-8 4858,-12l467 -1z"/>
   </clipPath>
   <clipPath id="id2">
    <path d="M1124 8062c0,-5 0,-11 0,-17l0 17z"/>
   </clipPath>
   <clipPath id="id3">
    <path d="M7197 8757l0 183 175 -1c98,0 143,0 250,-8 46,-9 45,-30 45,-49 0,-12 0,-24 0,-37 -1,-267 -1,-534 -2,-801 -1,-424 -2,-848 -3,-1271 -38,0 -75,0 -113,0l0 1642c0,189 -153,342 -343,342l-9 0z"/>
   </clipPath>
   <clipPath id="id4">
    <path d="M7207 8940l0 -183 -1 0 -5795 0c-119,0 -223,-60 -285,-152 1,80 1,136 1,136 0,0 3,81 3,98 0,14 3,33 4,47 1,18 11,45 27,56 2,1 5,2 7,3 49,9 49,9 86,9 41,1 81,1 119,1l10 0 0 0 7 0c161,0 303,-2 495,-2 1591,-4 3267,-8 4858,-12l464 -1z"/>
   </clipPath>
   <clipPath id="id5">
    <path d="M5577 8757l0 -1983 -4197 2c-78,0 -156,0 -234,0 2,459 -22,816 -22,1269l0 22 0 3 0 16c0,130 1,369 2,519 62,92 166,152 285,152l4166 0z"/>
   </clipPath>
   <clipPath id="id6">
    <path d="M5567 6774l0 1983 1639 0 0 0c190,0 343,-153 343,-342l0 -1642c-48,0 -97,0 -145,0 -208,0 -416,0 -623,0l-1214 1z"/>
   </clipPath>
   <clipPath id="id7">
    <path d="M7549 6307l0 0c2,-1 4,-1 5,-2 30,-21 29,-71 29,-116 0,-29 0,-59 0,-88 -2,-643 -3,-1285 -4,-1927 -2,-1019 -4,-2038 -6,-3057 -54,0 -108,0 -162,-1 -13,0 -25,0 -38,0l0 0c13,0 25,0 38,0 54,1 108,1 162,1 2,1019 4,2038 6,3057 1,642 2,1284 4,1927 0,29 0,59 0,88 0,45 1,95 -28,116 -2,1 -4,1 -6,2z"/>
   </clipPath>
   <clipPath id="id8">
    <path d="M3667 6334l0 0c87,0 170,-2 277,-3 1001,-2 2056,-3 3057,-5 150,-1 247,-1 396,-1 60,0 89,0 152,-18l0 0c-63,18 -92,18 -152,18 -149,0 -246,0 -396,1 -1001,2 -2056,3 -3057,5 -107,1 -190,3 -277,3l0 0z"/>
   </clipPath>
   <clipPath id="id9">
    <path d="M7549 6307l0 -1275c0,-126 -68,-236 -169,-295l-7 -3621c13,0 25,0 38,0 54,1 108,1 162,1 2,1019 4,2038 6,3057 1,642 2,1284 4,1927 0,29 0,59 0,88 0,45 1,95 -29,116 -1,1 -3,1 -5,2z"/>
   </clipPath>
   <clipPath id="id10">
    <path d="M3667 6334l-4 0c-37,0 -75,-1 -116,-2 -23,0 -23,0 -54,-22 -19,-22 -19,-88 -20,-138 0,-33 10,-52 10,-85 0,-1 0,-2 0,-3l3855 -7c25,0 44,-20 44,-44l-2 -1296c101,59 169,169 169,295l0 1275c-63,18 -92,18 -152,18 -149,0 -246,0 -396,1 -1001,2 -2056,3 -3057,5 -106,1 -187,3 -273,3l-4 0 0 0z"/>
   </clipPath>
 </defs>
 <g id="Capa_x0020_1">
  <metadata id="CorelCorpID_0Corel-Layer"/>
  <path class="fil0" d="M4333 9895c-1554,0 -2814,-144 -2814,-321 0,-176 1260,-320 2814,-320 1554,0 2813,144 2813,320 0,177 -1259,321 -2813,321z"/>
  <path class="fil1" d="M3434 4347l0 -339c0,-189 -153,-342 -343,-342l-1680 0c-189,0 -342,153 -342,342l0 910 0 3497c0,189 153,342 342,342l5795 0c190,0 343,-153 343,-342l0 -3383c0,-189 -153,-342 -343,-342l-3430 0c-189,0 -342,-154 -342,-343z"/>
  <g style="clip-path:url(#id0)">
   <image transform="matrix(1 -0 -0 -1 7199.58 8961.21)" x="0" y="0" width="474" height="2194" xlink:href="carpeta icono_Images\carpeta icono_ImgID1.png"/>
  </g>
  <g style="clip-path:url(#id1)">
   <image transform="matrix(1 -0 -0 -1 1156.58 8961.21)" x="0" y="0" width="6054" height="447" xlink:href="carpeta icono_Images\carpeta icono_ImgID2.png"/>
  </g>
  <g style="clip-path:url(#id2)">
   <image transform="matrix(1 -0 -0 -1 1119.58 8068.21)" x="0" y="0" width="11" height="28" xlink:href="carpeta icono_Images\carpeta icono_ImgID3.png"/>
  </g>
  <g style="clip-path:url(#id3)">
   <image transform="matrix(1 -0 -0 -1 7196.58 8961.21)" x="0" y="0" width="477" height="2194" xlink:href="carpeta icono_Images\carpeta icono_ImgID4.png"/>
  </g>
  <g style="clip-path:url(#id4)">
   <image transform="matrix(1 -0 -0 -1 1119.58 8961.21)" x="0" y="0" width="6087" height="447" xlink:href="carpeta icono_Images\carpeta icono_ImgID5.png"/>
  </g>
  <g style="clip-path:url(#id5)">
   <image transform="matrix(1 -0 -0 -1 1119.58 8761.21)" x="0" y="0" width="4457" height="1994" xlink:href="carpeta icono_Images\carpeta icono_ImgID6.png"/>
  </g>
  <g style="clip-path:url(#id6)">
   <image transform="matrix(1 -0 -0 -1 5566.59 8761.21)" x="0" y="0" width="1987" height="1994" xlink:href="carpeta icono_Images\carpeta icono_ImgID7.png"/>
  </g>
  <g style="clip-path:url(#id7)">
   <image transform="matrix(1 -0 -0 -1 7366.58 6311.21)" x="0" y="0" width="224" height="5201" xlink:href="carpeta icono_Images\carpeta icono_ImgID8.png"/>
  </g>
  <g style="clip-path:url(#id8)">
   <image transform="matrix(1 -0 -0 -1 3659.59 6338.21)" x="0" y="0" width="3894" height="38" xlink:href="carpeta icono_Images\carpeta icono_ImgID9.png"/>
  </g>
  <g style="clip-path:url(#id9)">
   <image transform="matrix(1 -0 -0 -1 7366.58 6311.21)" x="0" y="0" width="224" height="5201" xlink:href="carpeta icono_Images\carpeta icono_ImgID10.png"/>
  </g>
  <g style="clip-path:url(#id10)">
   <image transform="matrix(1 -0 -0 -1 3469.58 6338.21)" x="0" y="0" width="4084" height="1608" xlink:href="carpeta icono_Images\carpeta icono_ImgID11.png"/>
  </g>
  <path class="fil2" d="M3381 6040l-9 -4968c-1,-24 19,-44 43,-44l3914 -7c24,0 44,19 44,44l9 4968c0,24 -19,44 -44,44l-3913 7c-24,0 -44,-19 -44,-44z"/>
  <polygon class="fil3" points="4243,2805 4243,2726 6861,2721 6861,2800 "/>
  <polygon class="fil3" points="3786,3146 3785,3082 6861,3076 6862,3141 "/>
  <polygon class="fil3" points="3786,3534 3786,3470 6862,3464 6862,3528 "/>
  <polygon class="fil3" points="3787,3958 3787,3893 6863,3887 6863,3952 "/>
  <polygon class="fil4" points="5725,4767 3789,4771 3789,4706 5724,4703 "/>
  <polygon class="fil3" points="3788,4385 3788,4320 5724,4316 5724,4381 "/>
  <polygon class="fil4" points="6865,5106 3789,5112 3789,5047 6865,5041 "/>
  <polygon class="fil4" points="6866,5494 3790,5500 3790,5435 6866,5429 "/>
  <polygon class="fil4" points="6867,5917 3791,5923 3791,5859 6867,5853 "/>
  <polygon class="fil5" points="6951,2421 3766,2427 3764,1426 6950,1420 "/>
  <polygon class="fil6" points="6836,4948 5880,4950 5878,4017 6834,4015 "/>
  <path class="fil7" d="M3107 4347l0 -339c0,-189 -153,-342 -342,-342l-1681 0c-189,0 -342,153 -342,342l0 910 0 3497c0,189 153,342 342,342l5796 0c189,0 342,-153 342,-342l0 -3383c0,-189 -153,-342 -342,-342l-3431 0c-189,0 -342,-154 -342,-343z"/>
 </g>
</svg>
